{
    "antifeatures": {
        "Ads": "Ова апликација садржи огласе",
        "NoSourceSince": "Изворни кôд више није доступан, обнављања нису могућа",
        "NonFreeAdd": "Ова апликација предлаже неслободне додатке",
        "NonFreeAssets": "Ова апликација садржи неслободне ресурсе",
        "NonFreeDep": "Ова апликација зависи од неслободних апликација",
        "NonFreeNet": "Ова апликација предлаже неслободне мрежне услуге",
        "Tracking": "Ова апликација прати и пријављује ваше активности",
        "UpstreamNonFree": "Изворни кôд није у потпуности слободан"
    },
    "app_categories": {
        "Connectivity": "Повезивање",
        "Development": "Развој",
        "Games": "Игре",
        "Graphics": "Цртање",
        "Internet": "Интернет",
        "Money": "Новац",
        "Multimedia": "Мултимедија",
        "Navigation": "Навођење",
        "Phone & SMS": "Телефон и поруке",
        "Reading": "Читање",
        "Science & Education": "Наука и образовање",
        "Security": "Безбедност",
        "Sports & Health": "Спорт и здравље",
        "System": "Систем",
        "Theming": "Теме",
        "Time": "Време",
        "Writing": "Писање",
        "show_all_packages": "Прикажи свих %d паковања"
    },
    "index": {
        "download_fdroid": "Preuzmi F-Droid",
        "gpg_signature": "PGP potpis",
        "introduction": "F-Droid is katalog FOSS (Slobodnog i otvorenog softvera) aplikacija za Android platformu. Aplikacija ga čini lakim za pretragu, instaliranje i praćenje ažuriranja na vešem uređaju.",
        "screenshot": "F-Droid Android slika aplikacije",
        "title": "Šta je F-Droid?"
    },
    "navigation": {
        "about": "O",
        "apps": "Апликације",
        "contribute": "Doprinesi",
        "documentation": "Dokumenti",
        "edit_on_gitlab": "Уреди на GitLab-у",
        "forum": "Forum",
        "issues": "Problemi",
        "news": "Novosti",
        "translate_on_weblate": "Преведи на Weblate-у"
    },
    "package": {
        "added_on": "Додано {{ package_added_date }}",
        "anti_features": "Непожељне одлике",
        "anti_features_warning": "Ова апликација има одлике које Вам се можда неће свидети.",
        "author": "Аутор",
        "changelog": "Дневник измена",
        "donate": "Донирајте",
        "flattr": "Flattr",
        "liberapay": "Liberapay",
        "license": "Дозвола",
        "minimum_android_version": "Ова иначица захтева Андроид {{ android_version }} или новији.",
        "new_in_version": "Ново у иначици {{ latest_version }}",
        "packages": "Паковања",
        "permissions": "Допуштења",
        "source_code": "Изворни кôд",
        "suggested": "предложено",
        "translation": "Превод",
        "version_info": "<b>Иначица {{ package_version }}</b> ({{ package_version_code }})",
        "website": "Мрежно место"
    },
    "permissions": {
        "permdesc_acceptHandovers": "Дозвољава апликацији да настави позив који је започет у другој апликацији.",
        "permdesc_accessBackgroundLocation": "Ако се поред приближног или прецизног приступа локацији одобри и ово, апликација може да приступа локацији док је покренута у позадини.",
        "permdesc_accessCoarseLocation": "Ова апликација може да одреди вашу приближну локацију на основу услуга локације док се апликација користи. Услуге локације за уређај морају да буду укључене да би апликација одредила локацију.",
        "permdesc_accessDrmCertificates": "Дозвољава апликацији да додељује и користи DRM сертификате. Никада не би требало да се користи за уобичајене апликације.",
        "permdesc_accessFineLocation": "Ова апликација може да одреди вашу тачну локацију на основу услуга локације док се апликација користи. Услуге локације за уређај морају да буду укључене да би апликација одредила локацију. То може да повећа потрошњу батерије.",
        "permdesc_accessImsCallService": "Дозвољава апликацији да користи услугу размене тренутних порука да би упућивала позиве без ваше интервенције.",
        "permdesc_accessLocationExtraCommands": "Омогућава апликацији да приступа додатним командама даваоца услуга локације. То може да омогући апликацији да утиче на рад GPS-а или других извора локације.",
        "permdesc_accessNetworkConditions": "Дозвољава апликацији да прати податке о условима на мрежи. Не би никада требало да буде потребно за нормалне апликације.",
        "permdesc_accessNetworkState": "Дозвољава апликацији да прегледа информације о мрежним везама као што су информације о томе које мреже постоје и које мреже су повезане.",
        "permdesc_accessNotifications": "Дозвољава апликацији да преузима, испитује и брише обавештења, укључујући она која постављају друге апликације.",
        "permdesc_accessWifiState": "Дозвољава апликацији да прегледа информације о Wi-Fi умрежавању, као што су информације о томе да ли је Wi-Fi омогућен и називи повезаних Wi-Fi уређаја.",
        "permdesc_accessWimaxState": "Дозвољава апликацији да утврди да ли је WiMAX омогућен, као и информације о било којим повезаним WiMAX мрежама.",
        "permdesc_access_notification_policy": "Дозвољава апликацији да чита и уписује конфигурацију подешавања Не узнемиравај.",
        "permdesc_activityRecognition": "Ова апликација може да препозна Ваше физичке активности.",
        "permdesc_addVoicemail": "Дозвољава апликацији да додаје поруке у пријемно сандуче говорне поште.",
        "permdesc_answerPhoneCalls": "Дозвољава апликацији да одговори на долазни телефонски позив.",
        "permdesc_audioWrite": "Дозвољава апликацији да мења Вашу музичку збирку.",
        "permdesc_bindCarrierMessagingService": "Дозвољава власнику да се повеже са интерфејсом највишег нивоа за услугу за размену порука мобилног оператера. Никада не би требало да буде потребно за стандардне апликације.",
        "permdesc_bindCarrierServices": "Дозвољава власнику да се повеже са услугама оператера. Никада не би требало да буде потребно за обичне апликације.",
        "permdesc_bindCellBroadcastService": "Дозвољава апликацији да се везује за модул порука за мобилне уређаје на локалитету да би прослеђивала поруке за мобилне уређаје на локалитету онако како су примљене. Обавештења порука за мобилне уређаје на локалитету се на неким локацијама примају као упозорења на хитне случајеве. Злонамерне апликације могу да утичу на учинак или ометају рад уређаја када се прими порука о хитном случају за мобилне уређаје на локалитету.",
        "permdesc_bindConditionProviderService": "Дозвољава власнику да се повеже са интерфејсом највишег нивоа услуге добављача услова. Не би требало никада да буде потребно за уобичајене апликације.",
        "permdesc_bindDreamService": "Дозвољава власнику да се повеже са интерфејсом услуге сањарења највишег нивоа. Уобичајене апликације никада не би требало да је користе.",
        "permdesc_bindNotificationListenerService": "Дозвољава власнику да се повеже са интерфејсом услуге монитора обавештења највишег нивоа. Уобичајене апликације никада не би требало да је користе.",
        "permdesc_bind_connection_service": "Дозвољава интеракцију апликације са телефонским услугама ради упућивања/примања позива.",
        "permdesc_bind_incall_service": "Дозвољава апликацији да контролише када и како се кориснику приказује екран током позива.",
        "permdesc_bluetooth": "Дозвољава апликацији да прегледа конфигурацију Bluetooth-а на телефону, као и да успоставља и прихвата везе са упареним уређајима.",
        "permdesc_bluetoothAdmin": "Дозвољава апликацији да конфигурише локални Bluetooth телефон, као и да открије даљинске уређаје и упари се са њима.",
        "permdesc_bodySensors": "Дозвољава апликацији да приступа подацима са сензора који надгледају физичку кондицију, као што је број откуцаја срца.",
        "permdesc_broadcastSticky": "Дозвољава апликацији да шаље пријемчива емитовања, која остају по завршетку емитовања. Прекомерна употреба може да успори или дестабилизује телефон тако што ће га приморати да троши превише меморије.",
        "permdesc_callCompanionApp": "Дозвољава апликацији да види и управља тренутним позивима на уређају. То обухвата информације попут бројева телефона и статуса позива.",
        "permdesc_callPhone": "Дозвољава апликацији да позива бројеве телефона без ваше дозволе. Ово може да доведе до неочекиваних трошкова или позива. Имајте на уму да ово не дозвољава апликацији да позива бројеве за хитне случајеве. Злонамерне апликације могу да позивају без ваше потврде, што може да доведе до трошкова.",
        "permdesc_camera": "Ова апликација може да снима фотографије и видео снимке помоћу камере у било ком тренутку.",
        "permdesc_cameraOpenCloseListener": "Ова апликација може да добија повратне позиве када се било који уређај са камером отвара или затвара (помоћу неке апликације).",
        "permdesc_changeNetworkState": "Дозвољава апликацији да мења статус повезивања са мрежом.",
        "permdesc_changeTetherState": "Дозвољава апликацији да мења статус везе са привезаном мрежом.",
        "permdesc_changeWifiMulticastState": "Дозвољава апликацији да прима пакете који се шаљу на све уређаје на Wi-Fi мрежи помоћу вишесмерних адреса, а не само на телефон. Користи више напајања од режима једносмерног саобраћаја.",
        "permdesc_changeWifiState": "Дозвољава апликацији да се повезује са приступним тачкама за Wi-Fi и прекида везу са њима, као и да уноси промене у конфигурацију уређаја за Wi-Fi мреже.",
        "permdesc_changeWimaxState": "Дозвољава апликацији да повезује телефон са WiMAX мрежама и прекида везе са њима.",
        "permdesc_connection_manager": "Дозвољава апликацији да управља везама са телекомуникационим мрежама.",
        "permdesc_control_incall_experience": "Дозвољава апликацији да пружа кориснички доживљај током позива.",
        "permdesc_createNetworkSockets": "Дозвољава апликацији да прави мрежне прикључке и користи прилагођене мрежне протоколе. Прегледач и друге апликације омогућавају слање података на Интернет, па ова дозвола није потребна за слање података на Интернет.",
        "permdesc_disableKeyguard": "Дозвољава апликацији да онемогући закључавање тастатуре и све повезане безбедносне мере са лозинкама. На пример, телефон онемогућава закључавање тастатуре при пријему долазног телефонског позива, а затим га поново омогућава по завршетку позива.",
        "permdesc_enableCarMode": "Дозвољава апликацији да омогући режим рада у аутомобилу.",
        "permdesc_exemptFromAudioRecordRestrictions": "Изузмите апликацију из ограничења за снимање звука.",
        "permdesc_expandStatusBar": "Дозвољава апликацији да проширује или скупља статусну траку.",
        "permdesc_foregroundService": "Дозвољава апликацији да користи услуге у првом плану.",
        "permdesc_getAccounts": "Дозвољава апликацији да преузима листу налога познатих телефону. Ово може да обухвата било које налоге које праве апликације које инсталирате.",
        "permdesc_getPackageSize": "Дозвољава апликацији да преузме величине кôда, података и кеша.",
        "permdesc_getTasks": "Дозвољава апликацији да преузима информације о актуелним и недавно покренутим задацима. Ово може да омогући апликацији да открије информације о томе које се апликације користе на уређају.",
        "permdesc_handoverStatus": "Дозвољава овој апликацији да прима информације о актуелним пребацивањима помоћу Android пребацивања",
        "permdesc_imagesWrite": "Дозвољава апликацији да мења Вашу збирку слика.",
        "permdesc_install_shortcut": "Омогућава апликацији да додаје пречице на почетни екран без интервенције корисника.",
        "permdesc_invokeCarrierSetup": "Дозвољава власнику да позива апликацију са конфигурацијом коју одређује оператер. Уобичајене апликације никада не би требало да је користе.",
        "permdesc_killBackgroundProcesses": "Дозвољава апликацији да заустави позадинске процесе других апликација. Ово може да заустави друге апликације.",
        "permdesc_manageFace": "Дозвољава да апликација активира методе за додавање и брисање шаблона лица ради коришћења.",
        "permdesc_manageFingerprint": "Дозвољава апликацији да активира методе за додавање и брисање шаблона отисака прстију који ће се користити.",
        "permdesc_manageNetworkPolicy": "Дозвољава апликацији да управља смерницама за мрежу и одређује посебна правила за апликацију.",
        "permdesc_manageOwnCalls": "Дозвољава апликацији да преусмерава позиве преко система да би побољшала доживљај позивања.",
        "permdesc_manageProfileAndDeviceOwners": "Дозвољава апликацији да подеси власнике профила и власника уређаја.",
        "permdesc_mediaLocation": "Дозвољава апликацији да чита локације из Ваше медијске збирке.",
        "permdesc_modifyAudioSettings": "Дозвољава апликацији да мења глобална аудио подешавања као што су јачина звука и избор звучника који се користи као излаз.",
        "permdesc_modifyNetworkAccounting": "Дозвољава апликацији да измени начин на који апликације користе мрежу. Не користе је уобичајене апликације.",
        "permdesc_nfc": "Дозвољава апликацији да комуницира са ознакама, картицама и читачима комуникације кратког домета (NFC).",
        "permdesc_persistentActivity": "Дозвољава апликацији да учини сопствене компоненте трајним у меморији. Ово може да ограничи меморију доступну другим апликацијама и успори телефон.",
        "permdesc_preferredPaymentInfo": "Дозвољава апликацији да преузима информације о жељеној NFC услузи за плаћање, попут регистрованих идентификатора апликација и одредишта преусмеравања.",
        "permdesc_processOutgoingCalls": "Дозвољава апликацији да види који број се бира при одлазном позиву уз опцију да преусмери позив на други број или га потпуно прекине.",
        "permdesc_readCalendar": "Ова апликација може да чита све догађаје из календара које чувате на телефону, као и да дели или чува податке из календара.",
        "permdesc_readCallLog": "Ова апликација може да чита историју позива.",
        "permdesc_readCellBroadcasts": "Омогућава апликацији да чита поруке инфо сервиса које уређај прима. Упозорења инфо сервиса се на неким локацијама примају као упозорења на хитне случајеве. Злонамерне апликације могу да утичу на учинак или ометају функционисање уређаја када се прими порука инфо сервиса о хитном случају.",
        "permdesc_readContacts": "Дозвољава апликацији да чита податке о контактима које чувате на телефону. Апликације ће имати приступ и налозима на вашем телефону на којима су направљени контакти. Ту могу да спадају налози које су отвориле апликације које сте инсталирали. Ова дозвола омогућава апликацијама да чувају податке о контактима и злонамерне апликације могу да деле податке о контактима без вашег знања.",
        "permdesc_readHistoryBookmarks": "Дозвољава апликацији да чита историју свих URL адреса које су посећене помоћу Прегледача, као и све обележиваче у Прегледачу. Напомена: Ова дозвола се можда на примењује на прегледаче треће стране и друге апликације са могућношћу веб прегледања.",
        "permdesc_readInstallSessions": "Дозвољава апликацији да чита сесије инсталирања. То јој дозвољава да види детаље о активним инсталацијама пакета.",
        "permdesc_readNetworkUsageHistory": "Дозвољава апликацији да чита историју коришћења мреже за посебне мреже и апликације.",
        "permdesc_readPhoneNumbers": "Дозвољава апликацији да приступа бројевима телефона на уређају.",
        "permdesc_readPhoneState": "Дозвољава апликацији да приступа функцијама телефона на уређају. Ова дозвола омогућава апликацији да утврди број телефона и ИД-ове уређаја, затим да ли је позив активан, као и број даљинског уређаја са којим је успостављен позив.",
        "permdesc_readSms": "Ова апликација може да чита све SMS (текстуалне) поруке које се чувају на телефону.",
        "permdesc_readSyncSettings": "Дозвољава апликацији да чита подешавања синхронизације за налог. На пример, овако може да се утврди да ли је апликација Људи синхронизована са налогом.",
        "permdesc_readSyncStats": "Дозвољава апликацији да чита статистику синхронизације за налог, укључујући историју синхронизованих догађаја и количину података који се синхронизују.",
        "permdesc_receiveBootCompleted": "Омогућава да се апликација покрене чим се систем покрене. То може да успори покретање телефона, при чему ова апликација може да успори функционисање целог телефона тиме што ће увек бити активна.",
        "permdesc_receiveMms": "Дозвољава апликацији да прима и обрађује MMS поруке. То значи да апликација може да надгледа или брише поруке које се шаљу уређају, а да вам их не прикаже.",
        "permdesc_receiveSms": "Дозвољава апликацији да прима и обрађује SMS поруке. То значи да апликација може да надгледа или брише поруке које се шаљу уређају, а да вам их не прикаже.",
        "permdesc_receiveWapPush": "Дозвољава апликацији да прима и обрађује WAP поруке. Ова дозвола укључује могућност праћења или брисања порука које вам се шаљу, а које вам се не приказују.",
        "permdesc_recordAudio": "Ова апликација може да снима звук помоћу микрофона у било ком тренутку.",
        "permdesc_register_call_provider": "Дозвољава апликацији да региструје нове везе са телекомуникационим мрежама.",
        "permdesc_register_sim_subscription": "Дозвољава апликацији да региструје нове везе са телекомуникационим мрежама преко SIM картице.",
        "permdesc_removeDrmCertificates": "Дозвољава апликацији да уклања DRM сертификате. Никада не би требало да се користи за обичне апликације.",
        "permdesc_reorderTasks": "Дозвољава апликацији да премешта задатке у први план и у позадину. Апликација може да ради ово без вашег уноса.",
        "permdesc_requestDeletePackages": "Омогућава да апликација захтева брисање пакета.",
        "permdesc_requestIgnoreBatteryOptimizations": "Дозвољава апликацији да тражи дозволу за игнорисање оптимизација батерије за ту апликацију.",
        "permdesc_requestInstallPackages": "Омогућава да апликација захтева инсталацију пакета.",
        "permdesc_requestPasswordComplexity": "Дозвољава апликацији да сазна ниво сложености закључавања екрана (висока, средња, ниска или ниједна), што указује на могући опсег трајања и тип закључавања екрана. Апликација може и да предлаже корисницима да ажурирају закључавање екрана на одређени ниво, али корисници слободно могу да занемаре то и да иду на друге странице. Имајте на уму да се подаци за закључавање екрана не чувају као обичан текст, па апликација не зна тачну лозинку.",
        "permdesc_route_media_output": "Дозвољава апликацији да усмерава излаз медија на друге спољне уређаје.",
        "permdesc_runInBackground": "Ова апликација може да се покреће у позадини. То може брже да истроши батерију.",
        "permdesc_sdcardRead": "Дозвољава апликацији да чита садржај дељеног меморијског простора.",
        "permdesc_sdcardWrite": "Дозвољава апликацији да уписује садржај дељеног меморијског простора.",
        "permdesc_sendSms": "Дозвољава апликацији да шаље SMS поруке. Ово може да доведе до неочекиваних трошкова. Злонамерне апликације могу да шаљу поруке без ваше потврде, што може да изазове трошкове.",
        "permdesc_setAlarm": "Дозвољава апликацији да подеси аларм у инсталираној апликацији будилника. Неке апликације будилника можда не примењују ову функцију.",
        "permdesc_setInputCalibration": "Дозвољава апликацији да модификује параметре калибрације додирног екрана. Не би требало да буде потребно за нормалне апликације.",
        "permdesc_setTimeZone": "Дозвољава апликацији да промени временску зону телефона.",
        "permdesc_setWallpaper": "Дозвољава апликацији да поставља позадину система.",
        "permdesc_setWallpaperHints": "Дозвољава апликацији да подеси савете за системску величину позадине.",
        "permdesc_sim_communication": "Омогућава апликацији да шаље команде SIM картици. То је веома опасно.",
        "permdesc_startViewPermissionUsage": "Дозвољава власнику да започне коришћење дозволе за апликацију. Никада не би требало да буде потребна за уобичајене апликације.",
        "permdesc_statusBar": "Дозвољава апликацији да онемогући статусну траку или да додаје и уклања системске иконе.",
        "permdesc_statusBarService": "Дозвољава апликацији да функционише као статусна трака.",
        "permdesc_subscribedFeedsRead": "Дозвољава апликацији да преузима детаље о тренутно синхронизованим фидовима.",
        "permdesc_systemAlertWindow": "Ова апликација може да се приказује преко других апликација или других делова екрана. То може да омета стандардно коришћење апликација и начин на који се друге апликације приказују.",
        "permdesc_systemCamera": "Ова привилегована системска апликација може да снима слике и видео снимке помоћу камере система у било ком тренутку. Апликација треба да има и дозволу android.permission.CAMERA",
        "permdesc_transmitIr": "Дозвољава апликацији да користи одашиљач инфрацрвених зрака телефона.",
        "permdesc_uninstall_shortcut": "Омогућава апликацији да уклања пречице са почетног екрана без интервенције корисника.",
        "permdesc_useBiometric": "Дозвољава апликацији да користи биометријски хардвер за потврду идентитета",
        "permdesc_useDataInBackground": "Ова апликација може да користи податке у позадини. То може да повећа потрошњу података.",
        "permdesc_useFaceAuthentication": "Дозвољава да апликација користи хардвер за откључавање лицем ради потврде идентитета",
        "permdesc_useFingerprint": "Дозвољава апликацији да користи хардвер за отиске прстију ради потврде идентитета",
        "permdesc_use_sip": "Омогућава апликацији да упућује и прима SIP позиве.",
        "permdesc_vibrate": "Дозвољава апликацији да контролише вибрацију.",
        "permdesc_vibrator_state": "Дозвољава апликацији да приступа стању вибрирања.",
        "permdesc_videoWrite": "Дозвољава апликацији да мења Вашу збирку видеа.",
        "permdesc_wakeLock": "Дозвољава апликацији да спречи телефон да пређе у стање спавања.",
        "permdesc_writeCalendar": "Ова апликацији може да додаје, уклања или мења догађаје из календара на телефону. Ова апликација може да шаље поруке које изгледају као да их шаљу власници календара или да мења догађаје без знања власника.",
        "permdesc_writeCallLog": "Дозвољава апликацији да мења евиденцију позива на телефону, укључујући податке о долазним и одлазним позивима. Злонамерне апликације могу ово да користе да би брисале или мењале евиденцију позива.",
        "permdesc_writeContacts": "Дозвољава апликацији да мења податке о контактима које чувате на телефону. Ова дозвола омогућава апликацијама да бришу податке о контактима.",
        "permdesc_writeGeolocationPermissions": "Дозвољава апликацији да измени дозволе Прегледача за утврђивање географске локације. Злонамерне апликације то могу да злоупотребе и искористе за слање информација о локацији насумичним веб-сајтовима.",
        "permdesc_writeHistoryBookmarks": "Дозвољава апликацији да мења историју Прегледача или обележиваче ускладиштене на телефону. Ово може да омогући апликацији да брише или мења податке Прегледача. Напомена: Ова дозвола се можда на примењује на прегледаче треће стране и друге апликације са могућношћу веб прегледања.",
        "permdesc_writeSettings": "Дозвољава апликацији да мења податке о подешавању система. Злонамерне апликације могу да оштете конфигурацију система.",
        "permdesc_writeSyncSettings": "Дозвољава апликацији да мења подешавања синхронизације за налог. На пример, овако може да се омогући синхронизација апликације Људи са налогом.",
        "permgroupbackgroundrequest_location": "Желите ли да дозволите да <b>",
        "permgroupbackgroundrequestdetail_location": "Апликација тренутно може да приступа локацији само када користите апликацију",
        "permgroupdesc_activityRecognition": "приступ физичким активностима",
        "permgroupdesc_calendar": "приступи календару",
        "permgroupdesc_calllog": "читање и писање евиденције позива на телефону",
        "permgroupdesc_camera": "снима слике и видео",
        "permgroupdesc_contacts": "приступи контактима",
        "permgroupdesc_location": "приступи локацији овог уређаја",
        "permgroupdesc_microphone": "снима звук",
        "permgroupdesc_phone": "упућује телефонске позиве и управља њима",
        "permgroupdesc_sensors": "приступа подацима сензора о виталним функцијама",
        "permgroupdesc_sms": "шаље и прегледа SMS поруке",
        "permgroupdesc_storage": "приступа сликама, медијима и датотекама на уређају",
        "permgrouplab_activityRecognition": "Физичке активности",
        "permgrouplab_calendar": "Календар",
        "permgrouplab_calllog": "Евиденције позива",
        "permgrouplab_camera": "Камера",
        "permgrouplab_contacts": "Контакти",
        "permgrouplab_location": "Локација",
        "permgrouplab_microphone": "Микрофон",
        "permgrouplab_phone": "Телефон",
        "permgrouplab_sensors": "Сензори за тело",
        "permgrouplab_sms": "SMS",
        "permgrouplab_storage": "Меморијски простор",
        "permgrouprequest_activityRecognition": "Желите ли да дозволите да <b>",
        "permgrouprequest_calendar": "Желите ли да омогућите да <b>",
        "permgrouprequest_calllog": "Желите ли да омогућите да <b>",
        "permgrouprequest_camera": "Желите ли да омогућите да <b>",
        "permgrouprequest_contacts": "Желите ли да омогућите да <b>",
        "permgrouprequest_location": "Желите ли да омогућите да <b>",
        "permgrouprequest_microphone": "Желите ли да омогућите да <b>",
        "permgrouprequest_phone": "Желите ли да омогућите да <b>",
        "permgrouprequest_sensors": "Желите ли да омогућите да <b>",
        "permgrouprequest_sms": "Желите ли да омогућите да <b>",
        "permgrouprequest_storage": "Желите ли да омогућите да <b>",
        "permgrouprequestdetail_location": "Апликација ће имати приступ локацији само док користите апликацију",
        "permlab_acceptHandover": "настави позив у другој апликацији",
        "permlab_accessBackgroundLocation": "приступ локацији у позадини",
        "permlab_accessCoarseLocation": "приступ приближној локацији само у првом плану",
        "permlab_accessDrmCertificates": "приступ DRM сертификатима",
        "permlab_accessFineLocation": "приступ прецизној локацији само у првом плану",
        "permlab_accessImsCallService": "приступ услузи позива помоћу размене тренутних порука",
        "permlab_accessLocationExtraCommands": "приступ додатним командама добављача локације",
        "permlab_accessNetworkConditions": "праћење података о условима на мрежи",
        "permlab_accessNetworkState": "преглед мрежних веза",
        "permlab_accessNotifications": "приступ обавештењима",
        "permlab_accessWifiState": "преглед Wi-Fi веза",
        "permlab_accessWimaxState": "повезивање и прекид везе са WiMAX-ом",
        "permlab_access_notification_policy": "приступај подешавању Не узнемиравај",
        "permlab_activityRecognition": "препознавање физичких активности",
        "permlab_addVoicemail": "додавање говорне поште",
        "permlab_answerPhoneCalls": "одговарај на телефонске позиве",
        "permlab_audioWrite": "измена музичке колекције",
        "permlab_bindCarrierMessagingService": "повезивање са услугом за размену порука мобилног оператера",
        "permlab_bindCarrierServices": "повезивање са услугама оператера",
        "permlab_bindCellBroadcastService": "Прослеђивање порука за мобилне уређаје на локалитету",
        "permlab_bindConditionProviderService": "повежи са услугом добављача услова",
        "permlab_bindDreamService": "повезивање са услугом сањарења",
        "permlab_bindNotificationListenerService": "повезивање са услугом монитора обавештења",
        "permlab_bind_connection_service": "да ступа у интеракцију са телефонским услугама",
        "permlab_bind_incall_service": "комуницирај са екраном током позива",
        "permlab_bluetooth": "упаривање са Bluetooth уређајима",
        "permlab_bluetoothAdmin": "приступ Bluetooth подешавањима",
        "permlab_bodySensors": "приступ сензорима на телу (попут монитора за праћење пулса)",
        "permlab_broadcastSticky": "слање пријемчивих емитовања",
        "permlab_callCompanionApp": "преглед и контрола позива преко система.",
        "permlab_callPhone": "директно позивање бројева телефона",
        "permlab_camera": "снимање фотографија и видео снимака",
        "permlab_cameraOpenCloseListener": "Дозволите апликацији или услузи да добија повратне позиве о отварању или затварању уређаја са камером.",
        "permlab_changeNetworkState": "промена везе са мрежом",
        "permlab_changeTetherState": "промена повезивања привезивањем",
        "permlab_changeWifiMulticastState": "омогућавање пријема вишесмерног Wi-Fi саобраћаја",
        "permlab_changeWifiState": "повезивање и прекид везе са Wi-Fi мрежом",
        "permlab_changeWimaxState": "промени WiMAX статуса",
        "permlab_connection_manager": "управљање везама са телекомуникационим мрежама",
        "permlab_control_incall_experience": "пружај кориснички доживљај током позива",
        "permlab_createNetworkSockets": "има пун мрежни приступ",
        "permlab_disableKeyguard": "онемогућавање закључавања екрана",
        "permlab_enableCarMode": "омогућавање режима рада у аутомобилу",
        "permlab_exemptFromAudioRecordRestrictions": "изузимање из ограничења за снимање звука",
        "permlab_expandStatusBar": "проширење/скупљање статусне траке",
        "permlab_foregroundService": "покрени услугу у првом плану",
        "permlab_getAccounts": "проналажење налога на уређају",
        "permlab_getPackageSize": "мерење меморијског простора у апликацији",
        "permlab_getTasks": "преузимање покренутих апликација",
        "permlab_handoverStatus": "пријем статуса пребацивања помоћу Android пребацивања",
        "permlab_imagesWrite": "измена колекције слика",
        "permlab_install_shortcut": "инсталирање пречица",
        "permlab_invokeCarrierSetup": "позивање апликације са конфигурацијом коју одређује оператер",
        "permlab_killBackgroundProcesses": "затварање других апликација",
        "permlab_manageFace": "управљање хардв. за откључавање лицем",
        "permlab_manageFingerprint": "управљај хардвером за отиске прстију",
        "permlab_manageNetworkPolicy": "управљање смерницама за мрежу",
        "permlab_manageOwnCalls": "преусмеравање позива преко система",
        "permlab_manageProfileAndDeviceOwners": "управљање власницима профила и уређаја",
        "permlab_mediaLocation": "читање локација из медијске колекције",
        "permlab_modifyAudioSettings": "промена аудио подешавања",
        "permlab_modifyNetworkAccounting": "измените обрачунавање коришћења мреже",
        "permlab_nfc": "контрола комуникације у ужем пољу (Near Field Communication)",
        "permlab_persistentActivity": "омогућавање непрекидне активности апликације",
        "permlab_preferredPaymentInfo": "Информације о жељеној NFC услузи за плаћање",
        "permlab_processOutgoingCalls": "преусмеравање одлазних позива",
        "permlab_readCalendar": "Читање догађаја и података из календара",
        "permlab_readCallLog": "читање евиденције позива",
        "permlab_readCellBroadcasts": "читање порука инфо сервиса",
        "permlab_readContacts": "читање контаката",
        "permlab_readHistoryBookmarks": "читање веб обележивача и историје",
        "permlab_readInstallSessions": "читање сесија инсталирања",
        "permlab_readNetworkUsageHistory": "чита историју коришћења мреже",
        "permlab_readPhoneNumbers": "читање бројева телефона",
        "permlab_readPhoneState": "читање статуса и идентитета телефона",
        "permlab_readSms": "читање текстуалних порука (SMS или MMS)",
        "permlab_readSyncSettings": "читање подешавања синхронизације",
        "permlab_readSyncStats": "читање статистике о синхронизацији",
        "permlab_receiveBootCompleted": "покретање при покретању система",
        "permlab_receiveMms": "пријем текстуалних порука (MMS)",
        "permlab_receiveSms": "пријем текстуалних порука (SMS)",
        "permlab_receiveWapPush": "пријем текстуалних порука (WAP)",
        "permlab_recordAudio": "снимање аудио записа",
        "permlab_register_call_provider": "региструје нове везе са телекомуникационим мрежама",
        "permlab_register_sim_subscription": "региструје нове везе са телекомуникационим мрежама преко SIM картице",
        "permlab_removeDrmCertificates": "уклањај DRM сертификате",
        "permlab_reorderTasks": "промена редоследа покренутих апликација",
        "permlab_requestDeletePackages": "захтевање брисања пакета",
        "permlab_requestIgnoreBatteryOptimizations": "тражење дозволе за игнорисање оптимизација батерије",
        "permlab_requestInstallPackages": "захтевање пакета за инсталирање",
        "permlab_requestPasswordComplexity": "тражење сложености закључавања екрана",
        "permlab_route_media_output": "усмеравање излаза медија",
        "permlab_runInBackground": "покретање у позадини",
        "permlab_sdcardRead": "читање садржаја дељеног меморијског простора",
        "permlab_sdcardWrite": "мењање или брисање садржаја дељеног меморијског простора",
        "permlab_sendSms": "шаље и прегледа SMS поруке",
        "permlab_setAlarm": "подешавање аларма",
        "permlab_setInputCalibration": "промени калибрацију улазног уређаја",
        "permlab_setTimeZone": "подешавање временске зоне",
        "permlab_setWallpaper": "подешавање позадине",
        "permlab_setWallpaperHints": "прилагођавање величине позадине",
        "permlab_sim_communication": "слање команди на SIM",
        "permlab_startViewPermissionUsage": "почетак коришћења дозволе за преглед",
        "permlab_statusBar": "онемогућавање или измена статусне траке",
        "permlab_statusBarService": "функционисање као статусна трака",
        "permlab_subscribedFeedsRead": "читање пријављених фидова",
        "permlab_systemAlertWindow": "Ова апликација може да се приказује преко других апликација",
        "permlab_systemCamera": "Дозволите некој апликацији или услузи да приступа камерама система да би снимала слике и видео снимке",
        "permlab_transmitIr": "пренос инфрацрвених зрака",
        "permlab_uninstall_shortcut": "деинсталирање пречица",
        "permlab_useBiometric": "користи биометријски хардвер",
        "permlab_useDataInBackground": "коришћење података у позадини",
        "permlab_useFaceAuthentication": "коришћење хардвера за откључавање лицем",
        "permlab_useFingerprint": "користи хардвер за отиске прстију",
        "permlab_use_sip": "упућивање/пријем SIP позива",
        "permlab_vibrate": "контрола вибрације",
        "permlab_videoWrite": "измена видео колекције",
        "permlab_wakeLock": "спречавање преласка телефона у стање спавања",
        "permlab_writeCalendar": "додавање или измена календарских догађаја и слање порука е-поште гостима без знања власника",
        "permlab_writeCallLog": "писање евиденције позива",
        "permlab_writeContacts": "измена контаката",
        "permlab_writeGeolocationPermissions": "измена дозвола за географске локације Прегледача",
        "permlab_writeHistoryBookmarks": "писање веб обележивача и историје",
        "permlab_writeSettings": "измена подешавања система",
        "permlab_writeSyncSettings": "укључивање и искључивање синхронизације"
    },
    "sidebars": {
        "donate": {
            "bank_transfer_name": "Име",
            "hellotux_donation": "Ф-дроид добија 3€ за сваку продану мајицу.",
            "liberapay_alt": "Донирајте преко Liberapay-а",
            "litecoin_alt": "Донирајте преко Litecoin-а",
            "paypal_alt": "Донирајте преко PayPal-а",
            "powered_by_donations": "Ф-дроид се одржава вашим донацијама!"
        },
        "lang": {
            "change": "Промени"
        },
        "latest_packages": {
            "heading": "Најновије апликације"
        },
        "news": {
            "heading": "Новости"
        },
        "search": {
            "noscript": "Потребно је укључити JavaScript",
            "search": "Претрага"
        }
    }
}
